…
Select Variables
----------------

...by listing

``` r
##?select allows you to check what select does
## select(data frame, which group you want to select separated by commas)
select(litters_data, group, litter_number, gd0_weight, pups_survive)
```

    ## # A tibble: 49 x 4
    ##    group litter_number   gd0_weight pups_survive
    ##    <chr> <chr>                <dbl>        <int>
    ##  1 Con7  #85                   19.7            3
    ##  2 Con7  #1/2/95/2             27              7
    ##  3 Con7  #5/5/3/83/3-3         26              5
    ##  4 Con7  #5/4/2/95/2           28.5            4
    ##  5 Con7  #4/2/95/3-3           NA              6
    ##  6 Con7  #2/2/95/3-2           NA              4
    ##  7 Con7  #1/5/3/83/3-3/2       NA              9
    ##  8 Con8  #3/83/3-3             NA              8
    ##  9 Con8  #2/95/3               NA              8
    ## 10 Con8  #3/5/2/2/95           28.5            8
    ## # ... with 39 more rows

``` r
##selecting a different selection of variables where you extract the variables I am interested in
select(litters_data, litter_number, gd0_weight, pups_survive)
```

    ## # A tibble: 49 x 3
    ##    litter_number   gd0_weight pups_survive
    ##    <chr>                <dbl>        <int>
    ##  1 #85                   19.7            3
    ##  2 #1/2/95/2             27              7
    ##  3 #5/5/3/83/3-3         26              5
    ##  4 #5/4/2/95/2           28.5            4
    ##  5 #4/2/95/3-3           NA              6
    ##  6 #2/2/95/3-2           NA              4
    ##  7 #1/5/3/83/3-3/2       NA              9
    ##  8 #3/83/3-3             NA              8
    ##  9 #2/95/3               NA              8
    ## 10 #3/5/2/2/95           28.5            8
    ## # ... with 39 more rows

...by specifying a range:

``` r
##allows you to select a range 
select(litters_data, gd_of_birth:pups_survive)
```

    ## # A tibble: 49 x 4
    ##    gd_of_birth pups_born_alive pups_dead_birth pups_survive
    ##          <int>           <int>           <int>        <int>
    ##  1          20               3               4            3
    ##  2          19               8               0            7
    ##  3          19               6               0            5
    ##  4          19               5               1            4
    ##  5          20               6               0            6
    ##  6          20               6               0            4
    ##  7          20               9               0            9
    ##  8          20               9               1            8
    ##  9          20               8               0            8
    ## 10          20               8               0            8
    ## # ... with 39 more rows

``` r
##allows you to select a range and another list 
select(litters_data, group, gd_of_birth:pups_survive)
```

    ## # A tibble: 49 x 5
    ##    group gd_of_birth pups_born_alive pups_dead_birth pups_survive
    ##    <chr>       <int>           <int>           <int>        <int>
    ##  1 Con7           20               3               4            3
    ##  2 Con7           19               8               0            7
    ##  3 Con7           19               6               0            5
    ##  4 Con7           19               5               1            4
    ##  5 Con7           20               6               0            6
    ##  6 Con7           20               6               0            4
    ##  7 Con7           20               9               0            9
    ##  8 Con8           20               9               1            8
    ##  9 Con8           20               8               0            8
    ## 10 Con8           20               8               0            8
    ## # ... with 39 more rows

...by saying you want to remove (this will allow you to remove a column you don't want):

``` r
##allows you to keep everything else, except litter_number
select(litters_data, -litter_number)
```

    ## # A tibble: 49 x 7
    ##    group gd0_weight gd18_weight gd_of_birth pups_born_alive pups_dead_birth
    ##    <chr>      <dbl>       <dbl>       <int>           <int>           <int>
    ##  1 Con7        19.7        34.7          20               3               4
    ##  2 Con7        27          42            19               8               0
    ##  3 Con7        26          41.4          19               6               0
    ##  4 Con7        28.5        44.1          19               5               1
    ##  5 Con7        NA          NA            20               6               0
    ##  6 Con7        NA          NA            20               6               0
    ##  7 Con7        NA          NA            20               9               0
    ##  8 Con8        NA          NA            20               9               1
    ##  9 Con8        NA          NA            20               8               0
    ## 10 Con8        28.5        NA            20               8               0
    ## # ... with 39 more rows, and 1 more variable: pups_survive <int>

...Selecting gd\_day\_0\_weight and also renaming it as well. You can do either.

``` r
##here you are selecting gd0_weight and also renaming it 
select(litters_data, group, litter_number, gd_day_0_weight = gd0_weight)
```

    ## # A tibble: 49 x 3
    ##    group litter_number   gd_day_0_weight
    ##    <chr> <chr>                     <dbl>
    ##  1 Con7  #85                        19.7
    ##  2 Con7  #1/2/95/2                  27  
    ##  3 Con7  #5/5/3/83/3-3              26  
    ##  4 Con7  #5/4/2/95/2                28.5
    ##  5 Con7  #4/2/95/3-3                NA  
    ##  6 Con7  #2/2/95/3-2                NA  
    ##  7 Con7  #1/5/3/83/3-3/2            NA  
    ##  8 Con8  #3/83/3-3                  NA  
    ##  9 Con8  #2/95/3                    NA  
    ## 10 Con8  #3/5/2/2/95                28.5
    ## # ... with 39 more rows

``` r
##same way to rename a variable without selecting it at the same time 
rename(litters_data,  gd_day_0_weight = gd0_weight)
```

    ## # A tibble: 49 x 8
    ##    group litter_number gd_day_0_weight gd18_weight gd_of_birth
    ##    <chr> <chr>                   <dbl>       <dbl>       <int>
    ##  1 Con7  #85                      19.7        34.7          20
    ##  2 Con7  #1/2/95/2                27          42            19
    ##  3 Con7  #5/5/3/83/3-3            26          41.4          19
    ##  4 Con7  #5/4/2/95/2              28.5        44.1          19
    ##  5 Con7  #4/2/95/3-3              NA          NA            20
    ##  6 Con7  #2/2/95/3-2              NA          NA            20
    ##  7 Con7  #1/5/3/83/3-…            NA          NA            20
    ##  8 Con8  #3/83/3-3                NA          NA            20
    ##  9 Con8  #2/95/3                  NA          NA            20
    ## 10 Con8  #3/5/2/2/95              28.5        NA            20
    ## # ... with 39 more rows, and 3 more variables: pups_born_alive <int>,
    ## #   pups_dead_birth <int>, pups_survive <int>

....use select helpers

``` r
##?select_helpers allows you get help on how to do selec things

## allows you to select variables that start with "gd"
select(litters_data, starts_with("gd"))
```

    ## # A tibble: 49 x 3
    ##    gd0_weight gd18_weight gd_of_birth
    ##         <dbl>       <dbl>       <int>
    ##  1       19.7        34.7          20
    ##  2       27          42            19
    ##  3       26          41.4          19
    ##  4       28.5        44.1          19
    ##  5       NA          NA            20
    ##  6       NA          NA            20
    ##  7       NA          NA            20
    ##  8       NA          NA            20
    ##  9       NA          NA            20
    ## 10       28.5        NA            20
    ## # ... with 39 more rows

``` r
##allows you to select variables that start with "gd" and hte litter number 
select(litters_data, litter_number, starts_with("gd"))
```

    ## # A tibble: 49 x 4
    ##    litter_number   gd0_weight gd18_weight gd_of_birth
    ##    <chr>                <dbl>       <dbl>       <int>
    ##  1 #85                   19.7        34.7          20
    ##  2 #1/2/95/2             27          42            19
    ##  3 #5/5/3/83/3-3         26          41.4          19
    ##  4 #5/4/2/95/2           28.5        44.1          19
    ##  5 #4/2/95/3-3           NA          NA            20
    ##  6 #2/2/95/3-2           NA          NA            20
    ##  7 #1/5/3/83/3-3/2       NA          NA            20
    ##  8 #3/83/3-3             NA          NA            20
    ##  9 #2/95/3               NA          NA            20
    ## 10 #3/5/2/2/95           28.5        NA            20
    ## # ... with 39 more rows

``` r
## allows you to select variables that start with "pup"
select(litters_data, starts_with("pup"))
```

    ## # A tibble: 49 x 3
    ##    pups_born_alive pups_dead_birth pups_survive
    ##              <int>           <int>        <int>
    ##  1               3               4            3
    ##  2               8               0            7
    ##  3               6               0            5
    ##  4               5               1            4
    ##  5               6               0            6
    ##  6               6               0            4
    ##  7               9               0            9
    ##  8               9               1            8
    ##  9               8               0            8
    ## 10               8               0            8
    ## # ... with 39 more rows

``` r
##helps your reorganize your dataset. In this case, you are pulling the litter_data, then telling it to bring in the litter_number as the first column, then bringing in everything else. 
select(litters_data, litter_number, everything())
```

    ## # A tibble: 49 x 8
    ##    litter_number group gd0_weight gd18_weight gd_of_birth pups_born_alive
    ##    <chr>         <chr>      <dbl>       <dbl>       <int>           <int>
    ##  1 #85           Con7        19.7        34.7          20               3
    ##  2 #1/2/95/2     Con7        27          42            19               8
    ##  3 #5/5/3/83/3-3 Con7        26          41.4          19               6
    ##  4 #5/4/2/95/2   Con7        28.5        44.1          19               5
    ##  5 #4/2/95/3-3   Con7        NA          NA            20               6
    ##  6 #2/2/95/3-2   Con7        NA          NA            20               6
    ##  7 #1/5/3/83/3-… Con7        NA          NA            20               9
    ##  8 #3/83/3-3     Con8        NA          NA            20               9
    ##  9 #2/95/3       Con8        NA          NA            20               8
    ## 10 #3/5/2/2/95   Con8        28.5        NA            20               8
    ## # ... with 39 more rows, and 2 more variables: pups_dead_birth <int>,
    ## #   pups_survive <int>

...select the columns containing litter number, sex, and PD ears.

``` r
select(pups_data, litter_number:pd_ears)
```

    ## # A tibble: 313 x 3
    ##    litter_number   sex pd_ears
    ##    <chr>         <int>   <int>
    ##  1 #85               1       4
    ##  2 #85               1       4
    ##  3 #1/2/95/2         1       5
    ##  4 #1/2/95/2         1       5
    ##  5 #5/5/3/83/3-3     1       5
    ##  6 #5/5/3/83/3-3     1       5
    ##  7 #5/4/2/95/2       1      NA
    ##  8 #4/2/95/3-3       1       4
    ##  9 #4/2/95/3-3       1       4
    ## 10 #2/2/95/3-2       1       4
    ## # ... with 303 more rows
…
``` r
## by putting the exclamation point, you will exclude those that are NA
filter(litters_data, !is.na(gd0_weight)) 
```

    ## # A tibble: 34 x 8
    ##    group litter_number gd0_weight gd18_weight gd_of_birth pups_born_alive
    ##    <chr> <chr>              <dbl>       <dbl>       <int>           <int>
    ##  1 Con7  #85                 19.7        34.7          20               3
    ##  2 Con7  #1/2/95/2           27          42            19               8
    ##  3 Con7  #5/5/3/83/3-3       26          41.4          19               6
    ##  4 Con7  #5/4/2/95/2         28.5        44.1          19               5
    ##  5 Con8  #3/5/2/2/95         28.5        NA            20               8
    ##  6 Con8  #5/4/3/83/3         28          NA            19               9
    ##  7 Mod7  #59                 17          33.4          19               8
    ##  8 Mod7  #103                21.4        42.1          19               9
    ##  9 Mod7  #3/82/3-2           28          45.9          20               5
    ## 10 Mod7  #4/2/95/2           23.5        NA            19               9
    ## # ... with 24 more rows, and 2 more variables: pups_dead_birth <int>,
    ## #   pups_survive <int>
…
Learning Assessment
-------------------

``` r
select(pups_data, litter_number:pd_walk)
```

    ## # A tibble: 313 x 6
    ##    litter_number   sex pd_ears pd_eyes pd_pivot pd_walk
    ##    <chr>         <int>   <int>   <int>    <int>   <int>
    ##  1 #85               1       4      13        7      11
    ##  2 #85               1       4      13        7      12
    ##  3 #1/2/95/2         1       5      13        7       9
    ##  4 #1/2/95/2         1       5      13        8      10
    ##  5 #5/5/3/83/3-3     1       5      13        8      10
    ##  6 #5/5/3/83/3-3     1       5      14        6       9
    ##  7 #5/4/2/95/2       1      NA      14        5       9
    ##  8 #4/2/95/3-3       1       4      13        6       8
    ##  9 #4/2/95/3-3       1       4      13        7       9
    ## 10 #2/2/95/3-2       1       4      NA        8      10
    ## # ... with 303 more rows

``` r
filter(pups_data, sex == 1)
```

    ## # A tibble: 155 x 6
    ##    litter_number   sex pd_ears pd_eyes pd_pivot pd_walk
    ##    <chr>         <int>   <int>   <int>    <int>   <int>
    ##  1 #85               1       4      13        7      11
    ##  2 #85               1       4      13        7      12
    ##  3 #1/2/95/2         1       5      13        7       9
    ##  4 #1/2/95/2         1       5      13        8      10
    ##  5 #5/5/3/83/3-3     1       5      13        8      10
    ##  6 #5/5/3/83/3-3     1       5      14        6       9
    ##  7 #5/4/2/95/2       1      NA      14        5       9
    ##  8 #4/2/95/3-3       1       4      13        6       8
    ##  9 #4/2/95/3-3       1       4      13        7       9
    ## 10 #2/2/95/3-2       1       4      NA        8      10
    ## # ... with 145 more rows

``` r
filter(pups_data, pd_walk < 11, sex == 2)
```

    ## # A tibble: 127 x 6
    ##    litter_number   sex pd_ears pd_eyes pd_pivot pd_walk
    ##    <chr>         <int>   <int>   <int>    <int>   <int>
    ##  1 #1/2/95/2         2       4      13        7       9
    ##  2 #1/2/95/2         2       4      13        7      10
    ##  3 #1/2/95/2         2       5      13        8      10
    ##  4 #1/2/95/2         2       5      13        8      10
    ##  5 #1/2/95/2         2       5      13        6      10
    ##  6 #5/5/3/83/3-3     2       5      13        8      10
    ##  7 #5/5/3/83/3-3     2       5      14        7      10
    ##  8 #5/5/3/83/3-3     2       5      14        8      10
    ##  9 #5/4/2/95/2       2      NA      14        7      10
    ## 10 #5/4/2/95/2       2      NA      14        7      10
    ## # ... with 117 more rows

Mutate: you can do multiple operations at the same time
-------------------------------------------------------

Create variable

``` r
## 1) creating a new variable based on the functions of other variable and add in the weight gain variable. 2) tolower allows you to do lower case of whatever is inside. You aren't necessary changing the table (only in the console); put them in separate lines so that it looks cleaner; new variables getting added in at the end of the dataset 
mutate(litters_data,
  wt_gain = gd18_weight - gd0_weight,
  group = tolower(group)
)
```

    ## # A tibble: 49 x 9
    ##    group litter_number gd0_weight gd18_weight gd_of_birth pups_born_alive
    ##    <chr> <chr>              <dbl>       <dbl>       <int>           <int>
    ##  1 con7  #85                 19.7        34.7          20               3
    ##  2 con7  #1/2/95/2           27          42            19               8
    ##  3 con7  #5/5/3/83/3-3       26          41.4          19               6
    ##  4 con7  #5/4/2/95/2         28.5        44.1          19               5
    ##  5 con7  #4/2/95/3-3         NA          NA            20               6
    ##  6 con7  #2/2/95/3-2         NA          NA            20               6
    ##  7 con7  #1/5/3/83/3-…       NA          NA            20               9
    ##  8 con8  #3/83/3-3           NA          NA            20               9
    ##  9 con8  #2/95/3             NA          NA            20               8
    ## 10 con8  #3/5/2/2/95         28.5        NA            20               8
    ## # ... with 39 more rows, and 3 more variables: pups_dead_birth <int>,
    ## #   pups_survive <int>, wt_gain <dbl>

``` r
## you are starting with the same info as above, but are now adding a new variable that is squaring it 
mutate(litters_data,
  wt_gain = gd18_weight - gd0_weight,
  wt_gain_squared = wt_gain^2
)
```

    ## # A tibble: 49 x 10
    ##    group litter_number gd0_weight gd18_weight gd_of_birth pups_born_alive
    ##    <chr> <chr>              <dbl>       <dbl>       <int>           <int>
    ##  1 Con7  #85                 19.7        34.7          20               3
    ##  2 Con7  #1/2/95/2           27          42            19               8
    ##  3 Con7  #5/5/3/83/3-3       26          41.4          19               6
    ##  4 Con7  #5/4/2/95/2         28.5        44.1          19               5
    ##  5 Con7  #4/2/95/3-3         NA          NA            20               6
    ##  6 Con7  #2/2/95/3-2         NA          NA            20               6
    ##  7 Con7  #1/5/3/83/3-…       NA          NA            20               9
    ##  8 Con8  #3/83/3-3           NA          NA            20               9
    ##  9 Con8  #2/95/3             NA          NA            20               8
    ## 10 Con8  #3/5/2/2/95         28.5        NA            20               8
    ## # ... with 39 more rows, and 4 more variables: pups_dead_birth <int>,
    ## #   pups_survive <int>, wt_gain <dbl>, wt_gain_squared <dbl>

Learning Assessment
-------------------

``` r
##Create a variable that subtracts 7 from PD pivot
mutate(pups_data, pd_pivot_minus7 = pd_pivot - 7)
```

    ## # A tibble: 313 x 7
    ##    litter_number   sex pd_ears pd_eyes pd_pivot pd_walk pd_pivot_minus7
    ##    <chr>         <int>   <int>   <int>    <int>   <int>           <dbl>
    ##  1 #85               1       4      13        7      11               0
    ##  2 #85               1       4      13        7      12               0
    ##  3 #1/2/95/2         1       5      13        7       9               0
    ##  4 #1/2/95/2         1       5      13        8      10               1
    ##  5 #5/5/3/83/3-3     1       5      13        8      10               1
    ##  6 #5/5/3/83/3-3     1       5      14        6       9              -1
    ##  7 #5/4/2/95/2       1      NA      14        5       9              -2
    ##  8 #4/2/95/3-3       1       4      13        6       8              -1
    ##  9 #4/2/95/3-3       1       4      13        7       9               0
    ## 10 #2/2/95/3-2       1       4      NA        8      10               1
    ## # ... with 303 more rows
…
